# 3ds Max Wavefront OBJ Exporter v0.97b - (c)2007 guruware
# File Created: 13.03.2019 16:54:02

newmtl Material
	Ns 96.0784
	Ni 1.5000
	d 1.0000
	Tr 0.0000
	Tf 1.0000 1.0000 1.0000 
	illum 2
	Ka 0.0000 0.0000 0.0000
	Kd 0.6400 0.6400 0.6400
	Ks 0.0000 0.0000 0.0000
	Ke 0.0000 0.0000 0.0000
	map_Ka D:\Git Repositories\Dreameater\sceneryassets\Textures\Player\Player_Tex_B.png
	map_Kd D:\Git Repositories\Dreameater\sceneryassets\Textures\Player\Player_Tex_B.png
