# 3ds Max Wavefront OBJ Exporter v0.97b - (c)2007 guruware
# File Created: 14.01.2019 22:26:31

newmtl 01___Default
	Ns 10.0000
	Ni 1.5000
	d 1.0000
	Tr 0.0000
	Tf 1.0000 1.0000 1.0000 
	illum 2
	Ka 0.5880 0.5880 0.5880
	Kd 0.5880 0.5880 0.5880
	Ks 0.0000 0.0000 0.0000
	Ke 0.0000 0.0000 0.0000
	map_Ka D:\Desktop\On Going Projects\WipeOut\horizonsengine\horizonsengine\Main\Main\Textures\brickwall.jpg
	map_Kd D:\Desktop\On Going Projects\WipeOut\horizonsengine\horizonsengine\Main\Main\Textures\brickwall.jpg
	map_bump D:\Desktop\On Going Projects\WipeOut\horizonsengine\horizonsengine\Main\Main\Textures\brickwall_normal.jpg
	bump D:\Desktop\On Going Projects\WipeOut\horizonsengine\horizonsengine\Main\Main\Textures\brickwall_normal.jpg
